1_RESET
$SUC&1;

2_HASBALL
$SUC&2;
Has Ball 0
$COMP&2&0;
3_Replaced WM
$SUC&3;
WM RC'd

4_UPDATEWM 3283 119 41 41
$SUC&4;
WM RC'd

5_Replaced WM
$SUC&5;
WM RC'd

6_UPDATEWM 4504 119 41 41
$SUC&6;
WM RC'd

7_Replaced WM
$SUC&7;
WM RC'd

8_UPDATEWM 5659 119 41 41
$SUC&8;
WM RC'd

9_Replaced WM
$SUC&9;
WM RC'd

10_UPDATEWM 6876 119 41 40
$SUC&10;
WM RC'd

11_TURN 45 0
$SUC&11;

$COMP&11;
12_Replaced WM
$SUC&12;
WM RC'd

13_Replaced WM
$SUC&13;
WM RC'd

14_UPDATEWM 9308 123 44 86
$SUC&14;
WM RC'd

15_Replaced WM
$SUC&15;
WM RC'd

16_UPDATEWM 10508 124 43 80
$SUC&16;
WM RC'd

17_Replaced WM
$SUC&17;
WM RC'd

18_UPDATEWM 11714 123 43 79
$SUC&18;
WM RC'd

19_UPDATEWM 11993 122 42 90
$SUC&19;
WM RC'd

20_Replaced WM
$SUC&20;
WM RC'd

21_Replaced WM
$SUC&21;
WM RC'd

22_Replaced WM
$SUC&22;
WM RC'd

23_UPDATEWM 16208 97 34 33
$SUC&23;
WM RC'd

24_Replaced WM
$SUC&24;
WM RC'd

25_UPDATEWM 17415 96 34 33
$SUC&25;
WM RC'd

26_Replaced WM
$ARDRESET;READY

26_Replaced WM
ERRid
26
0
$ERR&0;

1_Replaced WM
$SUC&1;
WM RC'd

2_Replaced WM
$SUC&2;
WM RC'd

3_UPDATEWM 21900 96 35 33
$SUC&3;
WM RC'd

4_Replaced WM
$SUC&4;
WM RC'd

5_Replaced WM
$SUC&5;
WM RC'd

6_Replaced WM
$SUC&6;
WM RC'd

7_Replaced WM
$SUC&7;
WM RC'd

8_Replaced WM
$SUC&8;
WM RC'd

9_Replaced WM
$SUC&9;
WM RC'd

10_Replaced WM
$SUC&10;
WM RC'd

11_Replaced WM
$SUC&11;
WM RC'd

12_Replaced WM
$SUC&12;
WM RC'd

13_Replaced WM
$SUC&13;
WM RC'd

14_Replaced WM
$SUC&14;
WM RC'd

15_Replaced WM
$SUC&15;
WM RC'd

16_HASBALL
$SUC&16;
Has Ball 0
$COMP&16&0;
17_Replaced WM
$SUC&17;
WM RC'd

18_Replaced WM
$SUC&18;
WM RC'd

19_Replaced WM
$SUC&19;
WM RC'd

20_Replaced WM
$SUC&20;
WM RC'd

21_Replaced WM
$SUC&21;
WM RC'd

22_Replaced WM
$SUC&22;
WM RC'd

23_Replaced WM
$SUC&23;
WM RC'd

24_Replaced WM
$SUC&24;
WM RC'd

25_Replaced WM
$SUC&25;
WM RC'd

26_Replaced WM
$SUC&26;
WM RC'd

27_Replaced WM
$SUC&27;
WM RC'd

28_Replaced WM
$SUC&28;
WM RC'd

29_Replaced WM
$SUC&29;
WM RC'd

30_Replaced WM
$SUC&30;
WM RC'd

31_Replaced WM
$SUC&31;
WM RC'd

32_Replaced WM
$SUC&32;
WM RC'd

33_Replaced WM
$SUC&33;
WM RC'd

34_Replaced WM
$SUC&34;
WM RC'd

35_Replaced WM
$SUC&35;
WM RC'd

36_Replaced WM
$SUC&36;
WM RC'd

37_Replaced WM
$SUC&37;
WM RC'd

38_Replaced WM
$SUC&38;
WM RC'd

39_Replaced WM
$SUC&39;
WM RC'd

40_Replaced WM
$SUC&40;
WM RC'd

41_Replaced WM
$SUC&41;
WM RC'd

42_Replaced WM
$SUC&42;
WM RC'd

43_Replaced WM
$SUC&43;
WM RC'd

44_UPDATEWM 65128 96 34 39
$SUC&44;
WM RC'd

45_Replaced WM
$SUC&45;
WM RC'd

46_UPDATEWM 66328 96 34 34
$SUC&46;
WM RC'd

47_Replaced WM
$SUC&47;
WM RC'd

48_UPDATEWM 67583 96 34 34
$SUC&48;
WM RC'd

49_Replaced WM
$SUC&49;
WM RC'd

50_UPDATEWM 68782 96 34 34
$SUC&50;
WM RC'd

51_Replaced WM
$SUC&51;
WM RC'd

52_UPDATEWM 69978 96 34 39
$SUC&52;
WM RC'd

53_Replaced WM
$SUC&53;
WM RC'd

54_UPDATEWM 71168 96 34 39
$SUC&54;
WM RC'd

55_Replaced WM
$SUC&55;
WM RC'd

56_UPDATEWM 72367 96 34 34
$SUC&56;
WM RC'd

57_Replaced WM
$SUC&57;
WM RC'd

58_UPDATEWM 73573 96 34 34
$SUC&58;
WM RC'd

59_Replaced WM
$SUC&59;
WM RC'd

60_Replaced WM
$SUC&60;
WM RC'd

61_Replaced WM
$SUC&61;
WM RC'd

62_Replaced WM
$SUC&62;
WM RC'd

63_Replaced WM
$SUC&63;
WM RC'd

64_Replaced WM
$SUC&64;
WM RC'd

65_Replaced WM
$SUC&65;
WM RC'd

66_Replaced WM
$SUC&66;
WM RC'd

67_Replaced WM
$SUC&67;
WM RC'd

68_Replaced WM
$SUC&68;
WM RC'd

69_Replaced WM
$SUC&69;
WM RC'd

70_Replaced WM
$SUC&70;
WM RC'd

71_UPDATEWM 87673 96 34 39
$SUC&71;
WM RC'd

72_Replaced WM
$SUC&72;
WM RC'd

73_UPDATEWM 88897 96 34 34
$SUC&73;
WM RC'd

74_Replaced WM
$SUC&74;
WM RC'd

75_UPDATEWM 90066 96 34 39
$SUC&75;
WM RC'd

76_Replaced WM
$SUC&76;
WM RC'd

77_UPDATEWM 91287 96 34 39
$SUC&77;
WM RC'd

78_Replaced WM
$SUC&78;
WM RC'd

79_UPDATEWM 92508 96 34 34
$SUC&79;
WM RC'd

80_Replaced WM
$SUC&80;
WM RC'd

81_UPDATEWM 93683 96 34 34
$SUC&81;
WM RC'd

82_Replaced WM
$SUC&82;
WM RC'd

83_UPDATEWM 94912 96 34 34
$SUC&83;
WM RC'd

84_Replaced WM
$SUC&84;
WM RC'd

85_UPDATEWM 96082 96 34 34
$SUC&85;
WM RC'd

86_Replaced WM
$SUC&86;
WM RC'd

87_UPDATEWM 97274 96 34 34
$SUC&87;
WM RC'd

88_Replaced WM
$SUC&88;
WM RC'd

89_UPDATEWM 98516 96 34 39
$SUC&89;
WM RC'd

90_Replaced WM
$SUC&90;
WM RC'd

91_UPDATEWM 99691 96 34 34
$SUC&91;
WM RC'd

92_Replaced WM
$SUC&92;
WM RC'd

93_Replaced WM
$SUC&93;
WM RC'd

94_Replaced WM
$SUC&94;
WM RC'd

95_Replaced WM
$SUC&95;
WM RC'd

96_Replaced WM
$SUC&96;
WM RC'd

97_Replaced WM
$SUC&97;
WM RC'd

98_Replaced WM
$SUC&98;
WM RC'd

99_Replaced WM
$SUC&99;
WM RC'd

100_Replaced WM
$SUC&100;
WM RC'd

101_Replaced WM
$SUC&101;
WM RC'd

102_Replaced WM
$SUC&102;
WM RC'd

103_Replaced WM
$SUC&103;
WM RC'd

104_Replaced WM
$SUC&104;
WM RC'd

105_Replaced WM
$SUC&105;
WM RC'd

106_Replaced WM
$SUC&106;
WM RC'd

107_Replaced WM
$SUC&107;
WM RC'd

108_Replaced WM
$SUC&108;
WM RC'd

109_Replaced WM
$SUC&109;
WM RC'd

110_Replaced WM
$SUC&110;
WM RC'd

111_Replaced WM
$SUC&111;
WM RC'd

112_Replaced WM
$SUC&112;
WM RC'd

113_Replaced WM
$SUC&113;
WM RC'd

